…
# Single trend
gr_results <- gr_model %>%
  # Add hyper-priors for sigma
  estimate_gamma_hyperparameters(yeast_norm) %>%
  sample_posterior(
    'identifier',
    yeast_design,
    yeast_contrast,
    unc_gr,
    clusters = 10 # I highly recommend using parallel workers/clusters
  )               # this will greatly reduce the speed of running baldur
# The top hits then looks as follows:
gr_results %>%
  dplyr::arrange(err)
#> # A tibble: 1,802 × 21
#>    identifier    compa…¹       err   lfc lfc_025 lfc_50 lfc_975 lfc_eff lfc_r…²  sigma sigma…³ sigma…⁴ sigma…⁵ sigma…⁶
#>    <chr>         <chr>       <dbl> <dbl>   <dbl>  <dbl>   <dbl>   <dbl>   <dbl>  <dbl>   <dbl>   <dbl>   <dbl>   <dbl>
#>  1 Cre09.g40605… ng50 v… 3.11e-223 -6.19   -6.59  -6.19  -5.80    1765.   1.00  0.153   0.0829  0.139   0.303    1121.
#>  2 sp|P37302|AP… ng50 v… 4.54e-178 -1.51   -1.61  -1.51  -1.41    2792.   1.00  0.0552  0.0303  0.0507  0.106    1159.
#>  3 Cre12.g55410… ng50 v… 2.30e-164 -1.61   -1.73  -1.61  -1.48    3025.   0.999 0.0611  0.0326  0.0555  0.119    1126.
#>  4 sp|P38788|SS… ng50 v… 7.75e-152 -1.07   -1.15  -1.07  -0.989   3264.   1.00  0.0434  0.0235  0.0398  0.0861   1196.
#>  5 Cre14.g61670… ng50 v… 2.15e-126  4.55    4.18   4.55   4.94    2677.   1.00  0.179   0.0974  0.163   0.343    1417.
#>  6 Cre10.g42075… ng50 v… 3.23e-115 -4.15   -4.52  -4.16  -3.78    3809.   1.00  0.185   0.104   0.169   0.361    1321.
#>  7 sp|P09624|DL… ng50 v… 3.68e-100 -1.48   -1.62  -1.48  -1.34    3723.   1.00  0.0724  0.0392  0.0653  0.146    1083.
#>  8 Cre06.g30655… ng50 v… 2.21e- 93 -4.20   -4.61  -4.21  -3.80    2515.   1.00  0.184   0.0992  0.169   0.365    1181.
#>  9 Cre12.g53310… ng50 v… 2.56e- 93 -1.41   -1.55  -1.41  -1.27    2698.   1.00  0.0726  0.0385  0.0659  0.147    1006.
#> 10 sp|P32481|IF… ng50 v… 6.25e- 86 -1.59   -1.75  -1.59  -1.43    3394.   1.00  0.0850  0.0460  0.0775  0.168    1064.
#> # … with 1,792 more rows, 7 more variables: sigma_rhat <dbl>, lp <dbl>, lp_025 <dbl>, lp_50 <dbl>, lp_975 <dbl>,
#> #   lp_eff <dbl>, lp_rhat <dbl>, and abbreviated variable names ¹​comparison, ²​lfc_rhat, ³​sigma_025, ⁴​sigma_50,
#> #   ⁵​sigma_975, ⁶​sigma_eff
```
…
